1468.87;122.6
1509.54;109.67
1566.38;102.8
1586.68;127.22
1639.47;96.08
1676.01;128.18
1724.73;89.51
1765.34;128.67
1814.06;84
1854.66;129
1903.39;79.91
1943.99;129.02
1992.71;76.79
2033.32;128.82
2082.04;75.19
2122.64;128.5
2171.37;74.49
2211.97;128.21
2260.69;74.52
2301.3;127.74
2350.02;75.04
2390.62;127.13
2439.35;75.6
2479.95;126.52
2528.67;76.27
2569.28;125.96
2618;77.23
2658.6;125.64
2707.33;78.25
2747.93;125.15
2796.65;79.51
2837.26;124.8
2885.98;80.91
2926.58;124.42
2975.31;82.36
3015.91;123.83
3064.63;84
3105.24;123.13
3153.96;85.89
3194.56;122.17
3243.29;88.2
3283.89;120.68
3332.61;90.94
3373.22;118.85
3421.94;94.23
3462.54;115.87
3507.21;99.25
3527.51;111.44
3555.93;106.25
1507.25;125.57
1471.01;114.69
1460.14;118.7
1492.75;111.83