0.00752;4.1
0.00752;4.09
0.00752;4.09
0.00752;4.09
0.00752;4.08
0.0109;4.1
0.0109;4.09
0.0109;4.09
0.0109;4.09
0.0109;4.08
0.0109;4.08
0.0143;4.09
0.0143;4.08
0.0143;4.08
0.0143;4.07
0.0177;4.08
0.0177;4.07
0.0177;4.07
0.0211;4.07
0.0211;4.07
0.0211;4.06
0.0245;4.06
0.0245;4.06
0.0279;4.06
0.0279;4.06
0.0313;4.06
0.0313;4.05
0.0346;4.06
0.0346;4.05
0.0346;4.05
0.038;4.05
0.038;4.05
0.038;4.04
0.0414;4.05
0.0414;4.04
0.0414;4.04
0.0448;4.04
0.0448;4.04
0.0482;4.04
0.0482;4.04
0.0482;4.03
0.0516;4.04
0.0516;4.03
0.055;4.04
0.055;4.03
0.055;4.03
0.0584;4.03
0.0584;4.03
0.0584;4.03
0.0618;4.03
0.0618;4.03
0.0652;4.03
0.0652;4.02
0.0686;4.02
0.0686;4.02
0.0719;4.02
0.0719;4.02
0.0753;4.02
0.0753;4.02
0.0787;4.02
0.0787;4.01
0.0821;4.02
0.0821;4.01
0.0855;4.01
0.00297;4.11
0.00297;4.11
0.0027;4.13
0.0024;4.13
0.0022;4.15
0.0015;4.16
0;4.2
0.0012;4.16
0.00892;4.09